"Id","IsDeleted","Name","RecordTypeId","CreatedDate","CreatedById","LastModifiedDate","LastModifiedById","SystemModstamp","MayEdit","IsLocked","ConnectionReceivedId","ConnectionSentId","Suggestion_vod__c","Account_vod__c","Activity_Execution_Type_vod__c","Call2_vod__c","DismissFeedback1_vod__c","DismissFeedback2_vod__c","DismissFeedback3_vod__c","DismissFeedback4_vod__c","Mobile_ID_vod__c","Sent_Email_vod__c"
"a5jA00000004rUfIAI",0,"SI-000118256","012A00000019mJvIAI","2016-07-29 12:17:55","00580000002EZNTAA4","2016-07-29 12:17:55","00580000002EZNTAA4","2016-07-29 12:17:55",1,0,NA,NA,"a5lA0000002Hs22IAC","001A0000002oPFxIAM","Call_vod","a04A000000os73jIAA",NA,NA,NA,NA,"FD0C6ACE-F417-4158-BE85-B08654A43EED",NA
"a5jA00000004rUzIAI",0,"SI-000118260","012A00000019mJwIAI","2016-07-29 12:17:56","00580000002EZNTAA4","2016-07-29 12:17:56","00580000002EZNTAA4","2016-07-29 12:17:56",1,0,NA,NA,"a5lA0000002Hs1yIAC","001A0000002qANOIA2",NA,NA,NA,"True_vod",NA,NA,"D07CB4EA-6612-46C2-80CF-34F4D312D918",NA
"a5jA0000000DklGIAS",1,"SI-000086113","012A00000019mJxIAI","2016-07-07 13:28:36","00580000002EZNTAA4","2016-09-03 10:46:08","005A0000006S7gyIAC","2016-09-03 10:46:08",0,0,NA,NA,"a5lA0000001tMEbIAM","001A0000002qANOIA2",NA,NA,NA,NA,NA,NA,"1CCDA80E-A4AE-45B5-9105-F9C06FE9A004",NA
"a5jA0000000ILfOIAW",1,"SI-000703596","012A00000019mJxIAI","2017-04-27 14:20:45","00580000002EZNTAA4","2017-05-05 17:42:31","005A0000007O484IAC","2017-05-05 17:42:31",0,0,NA,NA,"a5lA0000008rkvzIAA","001A0000002qANOIA2",NA,NA,NA,NA,NA,NA,"B6DFB89F-509D-41B1-8DD3-4C03DEBBE8BE",NA
"a5jA0000000KNSSIA4",1,"SI-000805571","012A00000019mJvIAI","2017-05-24 01:55:17","00580000002EZNTAA4","2017-05-31 10:05:37","005A0000007O484IAC","2017-05-31 10:05:38",0,0,NA,NA,"a5lA0000009mOY3IAM","001A0000002oPFxIAM","Call_vod","a04A000000vW9lcIAC",NA,NA,NA,NA,"FE4BFC79-C5B2-472D-8B29-198E2CC5749D",NA
"a5jA0000000KvzbIAC",1,"SI-000834328","012A00000019mJxIAI","2017-06-01 18:46:52","00580000002EZNTAA4","2017-06-09 11:54:08","005A0000007O484IAC","2017-06-09 11:54:08",0,0,NA,NA,"a5lA000000A9WPsIAN","001A0000002qANOIA2",NA,NA,NA,NA,NA,NA,"730623F4-BBBA-4F0C-8AFF-7AE4ABFB1380",NA
"a5jA0000000KvzlIAC",1,"SI-000834330","012A00000019mJvIAI","2017-06-01 18:46:53","00580000002EZNTAA4","2017-06-28 11:54:37","005A0000001BnSVIA0","2017-06-28 11:54:37",0,0,NA,NA,"a5lA000000AB1b9IAD","001A0000002oPFxIAM","Call_vod",NA,NA,NA,NA,NA,"19569EEC-D898-4282-8A6E-A019185534EF",NA
"a5jA0000000LGsCIAW",0,"SI-000146783","012A00000019mJxIAI","2016-08-19 13:37:24","00580000002EZNTAA4","2016-08-19 13:37:24","00580000002EZNTAA4","2016-08-19 13:37:24",1,0,NA,NA,"a5lA0000000APWgIAO","001A0000002qANOIA2",NA,NA,NA,NA,NA,NA,"ACAB783E-BB34-4E53-955A-0A1D93854402",NA
"a5jA0000000TroVIAS",0,"SI-000198797","012A00000019mJxIAI","2016-09-29 22:04:20","00580000002EZNTAA4","2016-09-29 22:04:20","00580000002EZNTAA4","2016-09-29 22:04:20",1,0,NA,NA,"a5lA0000003K8eDIAS","001A0000002qANOIA2",NA,NA,NA,NA,NA,NA,"1AC04277-B0D8-4B6E-943B-6F7BDABBCA76",NA
"a5jA0000000TvEbIAK",0,"SI-000201570","012A00000019mJwIAI","2016-09-30 19:18:18","00580000002EZNTAA4","2016-09-30 19:18:18","00580000002EZNTAA4","2016-09-30 19:18:18",1,0,NA,NA,"a5lA0000003LCArIAO","001A0000002qANOIA2",NA,NA,NA,"True_vod",NA,NA,"F3E55AE4-CEA8-4580-B5AE-B6873A3DEE8B",NA
"a5jA0000000X04WIAS",1,"SI-000358827","012A00000019mJxIAI","2017-01-19 00:54:52","00580000002EZNTAA4","2017-03-25 06:31:59","005A0000006S7gyIAC","2017-03-25 06:31:59",0,0,NA,NA,"a5lA0000005FVbZIAW","001A0000002qANOIA2",NA,NA,NA,NA,NA,NA,"3D223AE9-6404-40D9-8D3C-1252EB17127F",NA
"a5jA0000002gjnyIAA",1,"SI-000551339","012A00000019mJvIAI","2017-03-20 02:31:33","00580000002EZNTAA4","2017-04-19 21:07:49","005A0000001BnSVIA0","2017-04-19 21:07:49",0,0,NA,NA,"a5lA0000007MYAPIA4","001A0000002qANOIA2","Call_vod",NA,NA,NA,NA,NA,"5124B903-6023-4B68-8508-93527F91F54E",NA
"a5jA0000002gjo3IAA",1,"SI-000551340","012A00000019mJvIAI","2017-03-20 02:31:33","00580000002EZNTAA4","2017-04-19 21:07:49","005A0000001BnSVIA0","2017-04-19 21:07:49",0,0,NA,NA,"a5lA0000007MYAOIA4","001A0000002oocdIAA","Call_vod",NA,NA,NA,NA,NA,"2EA9D2C3-7B6F-4503-981E-821EEE71A55E",NA
"a5jA0000004L3EdIAK",1,"SI-000636007","012A00000019mJxIAI","2017-04-10 14:09:09","00580000002EZNTAA4","2017-04-21 11:09:58","005A0000001BnSVIA0","2017-04-21 11:09:58",0,0,NA,NA,"a5lA0000008GRbvIAG","001A0000002qANOIA2",NA,NA,NA,NA,NA,NA,"D3660978-5D8D-4EBA-AAD5-7F6A5F4C22CF",NA
"a5jA0000004L8i9IAC",1,"SI-000640773","012A00000019mJxIAI","2017-04-11 03:59:41","005A0000000MgcGIAS","2017-04-20 08:28:01","005A0000001BnSVIA0","2017-04-20 08:28:01",0,0,NA,NA,"a5lA0000008CKNwIAO","001A0000002muPlIAI",NA,NA,NA,NA,NA,NA,"9B88134F-61E2-4C24-8FB8-F7A548C94BA1",NA
"a5jA0000005uYAhIAM",0,"SI-000914337","012A00000019mJvIAI","2017-06-23 13:19:25","00580000002EZNTAA4","2017-06-27 21:08:04","00580000002EZNTAA4","2017-06-27 21:08:05",1,0,NA,NA,"a5lA000000B7HF8IAN","001A0000002oPFxIAM","Call_vod",NA,NA,NA,NA,NA,"EC62A4B5-918E-44D7-B350-F1B3B624EBB7",NA
"a5jA0000005v1oiIAA",0,"SI-000939136","012A00000019mJxIAI","2017-06-29 20:10:21","00580000002EZNTAA4","2017-06-29 20:10:21","00580000002EZNTAA4","2017-06-29 20:10:21",1,0,NA,NA,"a5lA000000BM2t8IAD","001A0000002oocdIAA",NA,NA,NA,NA,NA,NA,"84E80319-2100-4B2B-9355-4FD28A5B52B7",NA
"a5jA0000005v1p1IAA",0,"SI-000939138","012A00000019mJxIAI","2017-06-29 20:10:21","00580000002EZNTAA4","2017-06-29 20:10:21","00580000002EZNTAA4","2017-06-29 20:10:21",1,0,NA,NA,"a5lA000000BM2uAIAT","001A0000002qANOIA2",NA,NA,NA,NA,NA,NA,"9E527A11-642F-4CED-BC93-851535386604",NA
"a5jA0000005wK7oIAE",1,"SI-001006677","012A00000019mJxIAI","2017-07-18 22:36:59","00580000002EZNTAA4","2017-07-27 07:59:17","005A0000007O484IAC","2017-07-27 07:59:17",0,0,NA,NA,"a5lA000000C4pqsIAB","001A0000002oocdIAA",NA,NA,NA,NA,NA,NA,"AF94031F-B6F7-4104-97DC-77B8ADAD83E1",NA
"a5jA0000005wVmPIAU",1,"SI-001016360","012A00000019mJxIAI","2017-07-20 22:56:35","00580000002EZNTAA4","2017-07-28 21:27:53","005A0000007O484IAC","2017-07-28 21:27:53",0,0,NA,NA,"a5lA000000C9jWlIAJ","001A0000002oocdIAA",NA,NA,NA,NA,NA,NA,"5372F6A1-32CC-4606-8AD5-126955D9DEDB",NA
"a5jA00000079yCrIAI",1,"SI-001261329","012A00000019mJvIAI","2017-09-27 22:20:27","00580000002EZNTAA4","2017-10-10 19:02:20","005A0000006yrtqIAA","2017-10-10 19:02:20",0,0,NA,NA,"a5lA000000F1OrNIAV","001A0000002oocdIAA","Call_vod",NA,NA,NA,NA,NA,"B6D844AA-37CF-4B6F-890D-4E6691A09126",NA
"a5jA00000079yCwIAI",1,"SI-001261330","012A00000019mJvIAI","2017-09-27 22:20:27","00580000002EZNTAA4","2017-10-10 19:05:19","005A0000006yrtqIAA","2017-10-10 19:05:19",0,0,NA,NA,"a5lA000000F1Q1rIAF","001A0000002qANOIA2","Call_vod","a04A000000y7lNDIAY",NA,NA,NA,NA,"71354096-A6B0-4D6D-AE5D-42731C4C6614",NA
