"accountId","physicalMessageUID","messageId","learningBuildUID","rescoringTimes","createdAt","updatedAt"
1404,"a3RA0000000U0UHMA0",52,"8c705569-3f7a-4be1-9ea1-90b107f5ce09",1,"2018-05-26 01:36:26","2018-05-26 01:36:26"
1425,"a3RA0000000U0UHMA0",52,"8c705569-3f7a-4be1-9ea1-90b107f5ce09",1,"2018-05-26 01:36:26","2018-05-26 01:36:26"
1492,"a3RA0000000U0UHMA0",52,"8c705569-3f7a-4be1-9ea1-90b107f5ce09",1,"2018-05-26 01:36:26","2018-05-26 01:36:26"
1616,"a3RA0000000U0UHMA0",52,"8c705569-3f7a-4be1-9ea1-90b107f5ce09",1,"2018-05-26 01:36:26","2018-05-26 01:36:26"
1625,"a3RA0000000U0UHMA0",52,"8c705569-3f7a-4be1-9ea1-90b107f5ce09",1,"2018-05-26 01:36:26","2018-05-26 01:36:26"
1641,"a3RA0000000U0UHMA0",52,"8c705569-3f7a-4be1-9ea1-90b107f5ce09",1,"2018-05-26 01:36:26","2018-05-26 01:36:26"
1653,"a3RA0000000U0UHMA0",52,"8c705569-3f7a-4be1-9ea1-90b107f5ce09",1,"2018-05-26 01:36:26","2018-05-26 01:36:26"
2068,"a3RA0000000U0UHMA0",52,"8c705569-3f7a-4be1-9ea1-90b107f5ce09",1,"2018-05-26 01:36:26","2018-05-26 01:36:26"
2074,"a3RA0000000U0UHMA0",52,"8c705569-3f7a-4be1-9ea1-90b107f5ce09",1,"2018-05-26 01:36:26","2018-05-26 01:36:26"
2137,"a3RA0000000U0UHMA0",52,"8c705569-3f7a-4be1-9ea1-90b107f5ce09",1,"2018-05-26 01:36:26","2018-05-26 01:36:26"
